Yu Group Software: R
…
<a class="xaringan-extra-logo simChef" href="https://github.com/Yu-Group/simChef"></a>

```r
experiment <- create_experiment(name = "my-exper") %>%
  add_dgp(dgp) %>% # DGP = data-generating process
  add_method(method) %>% # method under study
  add_evaluator(eval) %>% # evaluates simulation results
  add_visualizer(viz) # creates plots / tables / other visual summaries for Rmd

fit_experiment(experiment,
               n_reps = 100, # number of replicates for each combo of (dgp, method)
               save = TRUE, # save results to disk
               checkpoint_n_reps = 20) # save intermediate results as we go

# A tibble: 100 × 9
   .rep  .dgp_name .method_name param1 param2 vec          .n  .rho .noise_level
   <chr> <chr>     <chr>         <dbl>  <dbl> <list>    <dbl> <dbl>        <dbl>
 1 1     dgp1      method1           1      3 <dbl [3]>    10   0.5            1
 2 1     dgp1      method1           2      3 <dbl [3]>    10   0.5            1
 3 1     dgp1      method1           1      4 <dbl [3]>    10   0.5            1
 4 1     dgp1      method1           2      4 <dbl [3]>    10   0.5            1
 5 1     dgp1      method1           1      3 <int [6]>    10   0.5            1
# … with 95 more rows
```
…
